[
    {
        "id": "1",
        "nombre": "imipramina",
        "dosis": "75-300",
        "año": "2020",
        "precio": "8.5"
    },
    {
        "id": "2",
        "nombre": "Clorimipramina",
        "dosis": "75-300",
        "año": "2008",
        "precio": "10.0"
    }
]
